{
  "defaultSeverity": "error",
  "extends": [
    "tslint:recommended",
    "tslint-config-airbnb",
    "tslint-config-prettier"
  ],
  "jsRules": {
    "no-unused-expression": true
  },
  "rules": {
    "array-type": false,
    "arrow-parens": false,
    "import-name": false,
    "interface-name": [false],
    "member-access": [false],
    "max-classes-per-file": false,
    "max-line-length": [true, 80],
    "member-ordering": [false],
    "no-consecutive-blank-lines": true,
    "object-literal-sort-keys": false,
    "object-shorthand-properties-first": false,
    "ordered-imports": [
      true,
      {
        "import-sources-order": "lowercase-last",
        "named-imports-order": "lowercase-first"
      }
    ],
    "quotemark": [true, "single", "avoid-escape", "avoid-template"],
    "semicolon": [true, "always", "ignore-interfaces"],
    "trailing-comma": [true, { "multiline": "always", "singleline": "never" }],
    "variable-name": false
  },
  "rulesDirectory": []
}
